^E:\_FACULTATE\ANUL II\CLOUD\TEME\TEMEINDIV\TEMA2\DEBUG\SOURCE.OBJ|E:\_FACULTATE\ANUL II\CLOUD\TEME\TEMEINDIV\TEMA2\DEBUG\WALLET.OBJ
E:\_FACULTATE\ANUL II\CLOUD\TEME\TEMEINDIV\DEBUG\TEMA2.ILK
E:\_FACULTATE\ANUL II\CLOUD\TEME\TEMEINDIV\DEBUG\TEMA2.EXE
E:\_FACULTATE\ANUL II\CLOUD\TEME\TEMEINDIV\DEBUG\TEMA2.PDB
